date,pt_indice_euro,pt_indice_nominal,enf1,enf2,enf3,enf4,txenf2,txenf3,txenf4,im_plancher,im_plafond,smic_h,htp,smic_m,smig_h_sans_ab,smig_h_ab_max,smig_brut
1950-01,,,,,,,,,,,,,,,,,
1950-02,,,,,,,,,,,,,,,,,
1950-03,,,,,,,,,,,,,,,,,
1950-04,,,,,,,,,,,,,,,,,
1950-05,,,,,,,,,,,,,,,,,
1950-06,,,,,,,,,,,,,,,,,
1950-07,,,,,,,,,,,,,,,,,
1950-08,,,,,,,,,,,,,,,,,
1950-09,,,,,,,,,,,,,,,0.12,0.1,20.61
1950-10,,,,,,,,,,,,,,,0.12,0.1,20.61
1950-11,,,,,,,,,,,,,,,0.12,0.1,20.61
1950-12,,,,,,,,,,,,,,,0.12,0.1,20.61
1951-01,,,,,,,,,,,,,,,0.12,0.1,20.61
1951-02,,,,,,,,,,,,,,,0.12,0.1,20.61
1951-03,,,,,,,,,,,,,,,0.12,0.1,20.61
1951-04,,,,,,,,,,,,,,,0.13,0.11,22.99
1951-05,,,,,,,,,,,,,,,0.13,0.11,22.99
1951-06,,,,,,,,,,,,,,,0.13,0.11,22.99
1951-07,,,,,,,,,,,,,,,0.13,0.11,22.99
1951-08,,,,,,,,,,,,,,,0.13,0.11,22.99
1951-09,,,,,,,,,,,,,,,0.15,0.13,26.42
1951-10,,,,,,,,,,,,,,,0.15,0.13,26.42
1951-11,,,,,,,,,,,,,,,0.15,0.13,26.42
1951-12,,,,,,,,,,,,,,,0.15,0.13,26.42
1952-01,,,,,,,,,,,,,,,0.15,0.13,26.42
1952-02,,,,,,,,,,,,,,,0.15,0.13,26.42
1952-03,,,,,,,,,,,,,,,0.15,0.13,26.42
1952-04,,,,,,,,,,,,,,,0.15,0.13,26.42
1952-05,,,,,,,,,,,,,,,0.15,0.13,26.42
1952-06,,,,,,,,,,,,,,,0.15,0.13,26.42
1952-07,,,,,,,,,,,,,,,0.15,0.13,26.42
1952-08,,,,,,,,,,,,,,,0.15,0.13,26.42
1952-09,,,,,,,,,,,,,,,0.15,0.13,26.42
1952-10,,,,,,,,,,,,,,,0.15,0.13,26.42
1952-11,,,,,,,,,,,,,,,0.15,0.13,26.42
1952-12,,,,,,,,,,,,,,,0.15,0.13,26.42
1953-01,,,,,,,,,,,,,,,0.15,0.13,26.42
1953-02,,,,,,,,,,,,,,,0.15,0.13,26.42
1953-03,,,,,,,,,,,,,,,0.15,0.13,26.42
1953-04,,,,,,,,,,,,,,,0.15,0.13,26.42
1953-05,,,,,,,,,,,,,,,0.15,0.13,26.42
1953-06,,,,,,,,,,,,,,,0.15,0.13,26.42
1953-07,,,,,,,,,,,,,,,0.15,0.13,26.42
1953-08,,,,,,,,,,,,,,,0.15,0.13,26.42
1953-09,,,,,,,,,,,,,,,0.15,0.13,26.42
1953-10,,,,,,,,,,,,,,,0.15,0.13,26.42
1953-11,,,,,,,,,,,,,,,0.15,0.13,26.42
1953-12,,,,,,,,,,,,,,,0.15,0.13,26.42
1954-01,,,,,,,,,,,,,,,0.15,0.13,26.42
1954-02,,,,,,,,,,,,,,,0.18,0.15,30.39
1954-03,,,,,,,,,,,,,,,0.18,0.15,30.39
1954-04,,,,,,,,,,,,,,,0.18,0.15,30.39
1954-05,,,,,,,,,,,,,,,0.18,0.15,30.39
1954-06,,,,,,,,,,,,,,,0.18,0.15,30.39
1954-07,,,,,,,,,,,,,,,0.18,0.15,30.39
1954-08,,,,,,,,,,,,,,,0.18,0.15,30.39
1954-09,,,,,,,,,,,,,,,0.18,0.15,30.39
1954-10,,,,,,,,,,,,,,,0.19,0.16,32.11
1954-11,,,,,,,,,,,,,,,0.19,0.16,32.11
1954-12,,,,,,,,,,,,,,,0.19,0.16,32.11
1955-01,,,,,,,,,,,,,,,0.19,0.16,32.11
1955-02,,,,,,,,,,,,,,,0.19,0.16,32.11
1955-03,,,,,,,,,,,,,,,0.19,0.16,32.11
1955-04,,,,,,,,,,,,,,,0.19,0.17,33.29
1955-05,,,,,,,,,,,,,,,0.19,0.17,33.29
1955-06,,,,,,,,,,,,,,,0.19,0.17,33.29
1955-07,,,,,,,,,,,,,,,0.19,0.17,33.29
1955-08,,,,,,,,,,,,,,,0.19,0.17,33.29
1955-09,,,,,,,,,,,,,,,0.19,0.17,33.29
1955-10,,,,,,,,,,,,,,,0.19,0.17,33.29
1955-11,,,,,,,,,,,,,,,0.19,0.17,33.29
1955-12,,,,,,,,,,,,,,,0.19,0.17,33.29
1956-01,,,,,,,,,,,,,,,0.19,0.17,33.29
1956-02,,,,,,,,,,,,,,,0.19,0.17,33.29
1956-03,,,,,,,,,,,,,,,0.19,0.17,33.29
1956-04,,,,,,,,,,,,,,,0.19,0.18,33.29
1956-05,,,,,,,,,,,,,,,0.19,0.18,33.29
1956-06,,,,,,,,,,,,,,,0.19,0.18,33.29
1956-07,,,,,,,,,,,,,,,0.19,0.18,33.29
1956-08,,,,,,,,,,,,,,,0.19,0.18,33.29
1956-09,,,,,,,,,,,,,,,0.19,0.18,33.29
1956-10,,,,,,,,,,,,,,,0.19,0.18,33.29
1956-11,,,,,,,,,,,,,,,0.19,0.18,33.29
1956-12,,,,,,,,,,,,,,,0.19,0.18,33.29
1957-01,,,,,,,,,,,,,,,0.19,0.18,33.29
1957-02,,,,,,,,,,,,,,,0.19,0.18,33.29
1957-03,,,,,,,,,,,,,,,0.19,0.18,33.29
1957-04,,,,,,,,,,,,,,,0.19,0.18,33.29
1957-05,,,,,,,,,,,,,,,0.19,0.18,33.29
1957-06,,,,,,,,,,,,,,,0.19,0.18,33.29
1957-07,,,,,,,,,,,,,,,0.19,0.18,33.29
1957-08,,,,,,,,,,,,,,,0.2,0.19,35.26
1957-09,,,,,,,,,,,,,,,0.2,0.19,35.26
1957-10,,,,,,,,,,,,,,,0.2,0.19,35.26
1957-11,,,,,,,,,,,,,,,0.2,0.19,35.26
1957-12,,,,,,,,,,,,,,,0.2,0.19,35.26
1958-01,,,,,,,,,,,,,,,0.21,0.2,36.78
1958-02,,,,,,,,,,,,,,,0.21,0.2,36.78
1958-03,,,,,,,,,,,,,,,0.22,0.2,38.26
1958-04,,,,,,,,,,,,,,,0.22,0.2,38.26
1958-05,,,,,,,,,,,,,,,0.22,0.2,38.26
1958-06,,,,,,,,,,,,,,,0.23,0.21,39.44
1958-07,,,,,,,,,,,,,,,0.23,0.21,39.44
1958-08,,,,,,,,,,,,,,,0.23,0.21,39.44
1958-09,,,,,,,,,,,,,,,0.23,0.21,39.44
1958-10,,,,,,,,,,,,,,,0.23,0.21,39.44
1958-11,,,,,,,,,,,,,,,0.23,0.21,39.44
1958-12,,,,,,,,,,,,,,,0.23,0.21,39.44
1959-01,,,,,,,,,,,,,,,0.23,0.21,39.44
1959-02,,,,,,,,,,,,,,,0.24,0.22,41.22
1959-03,,,,,,,,,,,,,,,0.24,0.22,41.22
1959-04,,,,,,,,,,,,,,,0.24,0.22,41.22
1959-05,,,,,,,,,,,,,,,0.24,0.22,41.22
1959-06,,,,,,,,,,,,,,,0.24,0.22,41.22
1959-07,,,,,,,,,,,,,,,0.24,0.22,41.22
1959-08,,,,,,,,,,,,,,,0.24,0.22,41.22
1959-09,,,,,,,,,,,,,,,0.24,0.22,41.22
1959-10,,,,,,,,,,,,,,,0.24,0.22,41.22
1959-11,,,,,,,,,,,,,,,0.24,0.22,42.32
1959-12,,,,,,,,,,,,,,,0.24,0.22,42.32
1960-01,,,,,,,,,,,,,,,0.24,0.22,42.32
1960-02,,,,,,,,,,,,,,,0.24,0.22,42.32
1960-03,,,,,,,,,,,,,,,0.24,0.22,42.32
1960-04,,,,,,,,,,,,,,,0.24,0.22,42.32
1960-05,,,,,,,,,,,,,,,0.24,0.22,42.32
1960-06,,,,,,,,,,,,,,,0.24,0.22,42.32
1960-07,,,,,,,,,,,,,,,0.24,0.22,42.32
1960-08,,,,,,,,,,,,,,,0.24,0.22,42.32
1960-09,,,,,,,,,,,,,,,0.24,0.22,42.32
1960-10,,,,,,,,,,,,,,,0.25,0.23,43.3
1960-11,,,,,,,,,,,,,,,0.25,0.23,43.3
1960-12,,,,,,,,,,,,,,,0.25,0.23,43.3
1961-01,,,,,,,,,,,,,,,0.25,0.23,43.3
1961-02,,,,,,,,,,,,,,,0.25,0.23,43.3
1961-03,,,,,,,,,,,,,,,0.25,0.23,43.3
1961-04,,,,,,,,,,,,,,,0.25,0.23,43.3
1961-05,,,,,,,,,,,,,,,0.25,0.23,43.3
1961-06,,,,,,,,,,,,,,,0.25,0.23,43.3
1961-07,,,,,,,,,,,,,,,0.25,0.23,43.3
1961-08,,,,,,,,,,,,,,,0.25,0.23,43.3
1961-09,,,,,,,,,,,,,,,0.25,0.23,43.3
1961-10,,,,,,,,,,,,,,,0.25,0.23,43.3
1961-11,,,,,,,,,,,,,,,0.25,0.23,43.3
1961-12,,,,,,,,,,,,,,,0.26,0.24,44.56
1962-01,,,,,,,,,,,,,,,0.26,0.24,44.56
1962-02,,,,,,,,,,,,,,,0.26,0.24,44.56
1962-03,,,,,,,,,,,,,,,0.26,0.24,44.56
1962-04,,,,,,,,,,,,,,,0.26,0.24,44.56
1962-05,,,,,,,,,,,,,,,0.26,0.24,44.56
1962-06,,,,,,,,,,,,,,,0.26,0.24,45.66
1962-07,,,,,,,,,,,,,,,0.26,0.24,45.66
1962-08,,,,,,,,,,,,,,,0.26,0.24,45.66
1962-09,,,,,,,,,,,,,,,0.26,0.24,45.66
1962-10,,,,,,,,,,,,,,,0.26,0.24,45.66
1962-11,,,,,,,,,,,,,,,0.28,0.25,47.72
1962-12,,,,,,,,,,,,,,,0.28,0.25,47.72
1963-01,,,,,,,,,,,,,,,0.28,0.26,47.72
1963-02,,,,,,,,,,,,,,,0.28,0.26,47.72
1963-03,,,,,,,,,,,,,,,0.28,0.26,47.72
1963-04,,,,,,,,,,,,,,,0.28,0.26,47.72
1963-05,,,,,,,,,,,,,,,0.28,0.26,47.72
1963-06,,,,,,,,,,,,,,,0.28,0.26,47.72
1963-07,,,,,,,,,,,,,,,0.29,0.27,49.73
1963-08,,,,,,,,,,,,,,,0.29,0.27,49.73
1963-09,,,,,,,,,,,,,,,0.29,0.27,49.73
1963-10,,,,,,,,,,,,,,,0.29,0.27,49.73
1963-11,,,,,,,,,,,,,,,0.29,0.27,49.73
1963-12,,,,,,,,,,,,,,,0.29,0.27,49.73
1964-01,,,,,,,,,,,,,,,0.29,0.27,49.73
1964-02,,,,,,,,,,,,,,,0.29,0.27,49.73
1964-03,,,,,,,,,,,,,,,0.29,0.27,49.73
1964-04,,,,,,,,,,,,,,,0.29,0.27,49.73
1964-05,,,,,,,,,,,,,,,0.29,0.27,49.73
1964-06,,,,,,,,,,,,,,,0.29,0.27,49.73
1964-07,,,,,,,,,,,,,,,0.29,0.27,49.73
1964-08,,,,,,,,,,,,,,,0.29,0.27,49.73
1964-09,,,,,,,,,,,,,,,0.29,0.27,49.73
1964-10,,,,,,,,,,,,,,,0.29,0.28,50.99
1964-11,,,,,,,,,,,,,,,0.29,0.28,50.99
1964-12,,,,,,,,,,,,,,,0.29,0.28,50.99
1965-01,,,,,,,,,,,,,,,0.29,0.28,50.99
1965-02,,,,,,,,,,,,,,,0.29,0.28,50.99
1965-03,,,,,,,,,,,,,,,0.3,0.28,52
1965-04,,,,,,,,,,,,,,,0.3,0.28,52
1965-05,,,,,,,,,,,,,,,0.3,0.28,52
1965-06,,,,,,,,,,,,,,,0.3,0.28,52
1965-07,,,,,,,,,,,,,,,0.3,0.28,52
1965-08,,,,,,,,,,,,,,,0.3,0.28,52
1965-09,,,,,,,,,,,,,,,0.31,0.29,53.05
1965-10,,,,,,,,,,,,,,,0.31,0.29,53.05
1965-11,,,,,,,,,,,,,,,0.31,0.29,53.05
1965-12,,,,,,,,,,,,,,,0.31,0.29,53.05
1966-01,,,,,,,,,,,,,,,0.31,0.29,53.05
1966-02,,,,,,,,,,,,,,,0.31,0.29,53.05
1966-03,,,,,,,,,,,,,,,0.31,0.29,54.17
1966-04,,,,,,,,,,,,,,,0.31,0.29,54.17
1966-05,,,,,,,,,,,,,,,0.31,0.29,54.17
1966-06,,,,,,,,,,,,,,,0.31,0.29,54.17
1966-07,,,,,,,,,,,,,,,0.31,0.29,54.17
1966-08,,,,,,,,,,,,,,,0.31,0.29,54.17
1966-09,,,,,,,,,,,,,,,0.31,0.29,54.17
1966-10,,,,,,,,,,,,,,,0.32,,55.49
1966-11,,,,,,,,,,,,,,,0.32,,55.49
1966-12,,,,,,,,,,,,,,,0.32,,55.49
1967-01,,,,,,,,,,,,,,,0.32,,55.49
1967-02,,,,,,,,,,,,,,,0.32,,55.49
1967-03,,,,,,,,,,,,,,,0.32,,55.49
1967-04,,,,,,,,,,,,,,,0.32,,55.49
1967-05,,,,,,,,,,,,,,,0.32,,55.49
1967-06,,,,,,,,,,,,,,,0.32,,55.49
1967-07,,,,,,,,,,,,,,,0.33,,56.81
1967-08,,,,,,,,,,,,,,,0.33,,56.81
1967-09,,,,,,,,,,,,,,,0.33,,56.81
1967-10,,,,,,,,,,,,,,,0.33,,56.81
1967-11,,,,,,,,,,,,,,,0.33,,56.81
1967-12,,,,,,,,,,,,,,,0.33,,56.81
1968-01,,,,,,,,,,,,,,,0.34,,58.66
1968-02,,,,,,,,,,,,,,,0.34,,58.66
1968-03,,,,,,,,,,,,,,,0.34,,58.66
1968-04,,,,,,,,,,,,,,,0.34,,58.66
1968-05,,,,,,,,,,,,,,,0.34,,58.66
1968-06,,,,,,,,,,,,,,,0.46,,79.27
1968-07,,,,,,,,,,,,,,,0.46,,79.27
1968-08,,,,,,,,,,,,,,,0.46,,79.27
1968-09,,,,,,,,,,,,,,,0.46,,79.27
1968-10,,,,,,,,,,,,,,,0.46,,79.27
1968-11,,,,,,,,,,,,,,,0.46,,79.27
1968-12,,,,,,,,,,,,,,,0.47,,81.39
1969-01,,,,,,,,,,,,,,,0.47,,81.39
1969-02,,,,,,,,,,,,,,,0.47,,81.39
1969-03,,,,,,,,,,,,,,,0.47,,81.39
1969-04,,,,,,,,,,,,,,,0.48,,83.24
1969-05,,,,,,,,,,,,,,,0.48,,83.24
1969-06,,,,,,,,,,,,,,,0.48,,83.24
1969-07,,,,,,,,,,,,,,,0.48,,83.24
1969-08,,,,,,,,,,,,,,,0.48,,83.24
1969-09,,,,,,,,,,,,,,,0.48,,83.24
1969-10,,,,,,,,,,,,,,,0.5,,86.41
1969-11,,,,,,,,,,,,,,,0.5,,86.41
1969-12,,,,,,,,,,,,,,,0.5,,86.41
1970-01,8.6576,8.66,,,,,,,,,,0.5,173.333333333,86.41,,,
1970-02,8.6576,8.66,,,,,,,,,,0.5,173.333333333,86.41,,,
1970-03,8.6576,8.66,,,,,,,,,,0.51,173.333333333,88.79,,,
1970-04,8.9975,9,,,,,,,,,,0.51,173.333333333,88.79,,,
1970-05,8.9975,9,,,,,,,,,,0.51,173.333333333,88.79,,,
1970-06,8.9975,9,,,,,,,,,,0.51,173.333333333,88.79,,,
1970-07,8.9975,9,,,,,,,,,,0.53,173.333333333,92.49,,,
1970-08,8.9975,9,,,,,,,,,,0.53,173.333333333,92.49,,,
1970-09,8.9975,9,,,,,,,,,,0.53,173.333333333,92.49,,,
1970-10,9.1896,9.19,,,,,,,,,,0.53,173.333333333,92.49,,,
1970-11,9.1896,9.19,,,,,,,,,,0.53,173.333333333,92.49,,,
1970-12,9.1896,9.19,,,,,,,,,,0.53,173.333333333,92.49,,,
1971-01,9.3726,9.37,,,,,,,,,,0.55,173.333333333,95.92,,,
1971-02,9.3726,9.37,,,,,,,,,,0.55,173.333333333,95.92,,,
1971-03,9.3726,9.37,,,,,,,,,,0.55,173.333333333,95.92,,,
1971-04,9.3726,9.37,,,,,,,,,,0.56,173.333333333,97.24,,,
1971-05,9.3726,9.37,,,,,,,,,,0.56,173.333333333,97.24,,,
1971-06,9.5098,9.51,,,,,,,,,,0.56,173.333333333,97.24,,,
1971-07,9.5098,9.51,,,,,,,,,,0.59,173.333333333,101.73,,,
1971-08,9.5098,9.51,,,,,,,,,,0.59,173.333333333,101.73,,,
1971-09,9.5098,9.51,,,,,,,,,,0.59,173.333333333,101.73,,,
1971-10,9.8574,9.86,,,,,,,,,,0.59,173.333333333,101.73,,,
1971-11,9.9671,9.97,,,,,,,,,,0.59,173.333333333,101.73,,,
1971-12,9.9671,9.97,,,,,,,,,,0.6,173.333333333,104.11,,,
1972-01,10.0129,10.01,,,,,,,,,,0.6,173.333333333,104.11,,,
1972-02,10.1638,10.16,,,,,,,,,,0.6,173.333333333,104.11,,,
1972-03,10.1638,10.16,,,,,,,,,,0.6,173.333333333,104.11,,,
1972-04,10.1638,10.16,,,,,,,,,,0.6,173.333333333,104.11,,,
1972-05,10.1638,10.16,,,,,,,,,,0.63,173.333333333,108.34,,,
1972-06,10.333,10.33,,,,,,,,,,0.63,173.333333333,108.34,,,
1972-07,10.333,10.33,,,,,,,,,,0.66,173.333333333,113.63,,,
1972-08,10.333,10.33,,,,,,,,,,0.66,173.333333333,113.63,,,
1972-09,10.4336,10.43,,,,,,,,,,0.66,173.333333333,113.63,,,
1972-10,10.6608,10.66,,,,,,,,,,0.66,173.333333333,113.63,,,
1972-11,10.6608,10.66,,,,,,,,,,0.69,173.333333333,120.23,,,
1972-12,10.6608,10.66,,,,,,,,,,0.69,173.333333333,120.23,,,
1973-01,11.0144,11.01,,,,,,,,,,0.69,173.333333333,120.23,,,
1973-02,11.0144,11.01,,,,,,,,,,0.71,173.333333333,122.61,,,
1973-03,11.0144,11.01,,,,,,,,,,0.71,173.333333333,122.61,,,
1973-04,11.0144,11.01,,,,,,,,,,0.71,173.333333333,122.61,,,
1973-05,11.0144,11.01,,,,,,,,,,0.71,173.333333333,122.61,,,
1973-06,11.1776,11.18,,,,,,,,,,0.71,173.333333333,122.61,,,
1973-07,11.2309,11.23,,,,,,,,,,0.79,173.333333333,137.41,,,
1973-08,11.3132,11.31,,,,,,,,,,0.79,173.333333333,137.41,,,
1973-09,11.3132,11.31,,,,,,,,,,0.79,173.333333333,137.41,,,
1973-10,11.7462,11.75,,,,,,,,,,0.81,173.333333333,140.58,,,
1973-11,11.7462,11.75,,,,,,,,,,0.81,173.333333333,140.58,,,
1973-12,11.9368,11.94,,,,,,,,,,0.83,173.333333333,143.49,,,
1974-01,12.0999,12.1,,,,,,,,,,0.83,173.333333333,143.49,,,
1974-02,12.3423,12.34,,,,,,,,,,0.83,173.333333333,143.49,,,
1974-03,12.3423,12.34,,,,,,,,,,0.85,173.333333333,147.98,,,
1974-04,12.6136,12.61,,,,,,,,,,0.85,173.333333333,147.98,,,
1974-05,12.6136,12.61,,,,,,,,,,0.91,173.333333333,157.23,,,
1974-06,12.8072,12.81,,,,,,,,,,0.91,173.333333333,157.23,,,
1974-07,12.9292,12.93,,,,,,,,,,0.98,173.333333333,169.12,,,
1974-08,12.9292,12.93,,,,,,,,,,0.98,173.333333333,169.12,,,
1974-09,13.1701,13.17,,,,,,,,,,1,173.333333333,173.08,,,
1974-10,13.1701,13.17,,,,,,,,,,1,173.333333333,173.08,,,
1974-11,13.5359,13.54,,,,,,,,,,1,173.333333333,173.08,,,
1974-12,13.8393,13.84,,,,,,,,,,1.03,173.333333333,178.37,,,
1975-01,14.036,14.04,,,,,,,,,,1.03,173.333333333,178.37,,,
1975-02,14.036,14.04,,,,,,,,,,1.03,173.333333333,178.37,,,
1975-03,14.036,14.04,,,,,,,,,,1.06,173.333333333,183.65,,,
1975-04,14.3897,14.39,,,,,,,,,,1.06,173.333333333,183.65,,,
1975-05,14.3897,14.39,,,,,,,,,,1.06,173.333333333,183.65,,,
1975-06,14.3897,14.39,,,,,,,,,,1.09,173.333333333,188.14,,,
1975-07,14.6382,14.64,,,,,,,,,,1.15,173.333333333,199.5,,,
1975-08,14.6382,14.64,,,,,,,,,,1.15,173.333333333,199.5,,,
1975-09,14.6382,14.64,,,,,,,,,,1.15,173.333333333,199.5,,,
1975-10,15.2068,15.21,,,,,,,,,,1.18,173.333333333,203.73,,,
1975-11,15.2068,15.21,,,,,,,,,,1.18,173.333333333,203.73,,,
1975-12,15.2068,15.21,,,,,,,,,,1.18,173.333333333,203.73,,,
1976-01,15.6016,15.6,,,,,,,,,,1.2,173.333333333,208.49,,,
1976-02,15.6016,15.6,,,,,,,,,,1.2,173.333333333,208.49,,,
1976-03,15.6016,15.6,,,,,,,,,,1.2,173.333333333,208.49,,,
1976-04,15.9401,15.94,,,,,,,,,,1.23,173.333333333,213.51,,,
1976-05,15.9401,15.94,,,,,,,,,,1.23,173.333333333,213.51,,,
1976-06,15.9401,15.94,,,,,,,,,,1.23,173.333333333,213.51,,,
1976-07,16.2633,16.26,,,,,,,,,,1.31,173.333333333,226.72,,,
1976-08,16.2633,16.26,,,,,,,,,,1.31,173.333333333,226.72,,,
1976-09,16.2633,16.26,,,,,,,,,,1.31,173.333333333,226.72,,,
1976-10,16.7984,16.8,,,,,,,,,,1.34,173.333333333,231.48,,,
1976-11,16.7984,16.8,,,,,,,,,,1.34,173.333333333,231.48,,,
1976-12,16.7984,16.8,,,,,,,,,,1.36,173.333333333,236.23,,,
1977-01,17.1597,17.16,,,,,,,,,,1.36,173.333333333,236.23,,,
1977-02,17.1597,17.16,,,,,,,,,,1.36,173.333333333,236.23,,,
1977-03,17.1597,17.16,,,,,,,,,,1.36,173.333333333,236.23,,,
1977-04,17.338,17.34,,,,,,,,,,1.39,173.333333333,241.52,,,
1977-05,17.338,17.34,,,,,,,,,,1.39,173.333333333,241.52,,,
1977-06,17.7649,17.76,,,,,,,,,,1.42,173.333333333,246.8,,,
1977-07,17.7649,17.76,,,,,,,,,,1.46,173.333333333,253.15,,,
1977-08,17.7649,17.76,,,,,,,,,,1.46,173.333333333,253.15,,,
1977-09,18.21,18.21,,,,,,,,,,1.46,173.333333333,253.15,,,
1977-10,18.21,18.21,,,,,,,,,,1.49,173.333333333,258.7,,,
1977-11,18.21,18.21,,,,,,,,,,1.49,173.333333333,258.7,,,
1977-12,18.6369,18.64,,,,,,,,,,1.53,173.333333333,265.83,,,
1978-01,18.6369,18.64,,,,,,,,,,1.53,173.333333333,265.83,,,
1978-02,18.9159,18.92,,,,,,,,,,1.53,173.333333333,265.83,,,
1978-03,18.9159,18.92,,,,,,,,,,1.53,173.333333333,265.83,,,
1978-04,18.9159,18.92,,,,,,,,,,1.53,173.333333333,265.83,,,
1978-05,18.9159,18.92,,,,,,,,,,1.59,173.333333333,276.14,,,
1978-06,19.6613,19.66,,,,,,,,,,1.59,173.333333333,276.14,,,
1978-07,19.6613,19.66,,,,,,,,,,1.65,173.333333333,286.71,,,
1978-08,19.6613,19.66,,,,,,,,,,1.65,173.333333333,286.71,,,
1978-09,20.1278,20.13,,,,,,,,,,1.69,173.333333333,292.52,,,
1978-10,20.1278,20.13,,,,,,,,,,1.69,173.333333333,292.52,,,
1978-11,20.6965,20.7,,,,,,,,,,1.69,173.333333333,292.52,,,
1978-12,20.6965,20.7,,,,,,,,,,1.72,173.333333333,298.86,,,
1979-01,20.7331,20.73,,,,,,,,,,1.72,173.333333333,298.86,,,
1979-02,20.7331,20.73,,,,,,,,,,1.72,173.333333333,298.86,,,
1979-03,21.0441,21.04,,,,,,,,,,1.72,173.333333333,298.86,,,
1979-04,21.0441,21.04,,,,,,,,,,1.77,173.333333333,306.52,,,
1979-05,21.0441,21.04,,,,,,,,,,1.77,173.333333333,306.52,,,
1979-06,21.6142,21.61,,,,,,,,,,1.77,173.333333333,306.52,,,
1979-07,21.9252,21.93,,,,,,,,,,1.85,173.333333333,321.06,,,
1979-08,21.9252,21.93,,,,,,,,,,1.85,173.333333333,321.06,,,
1979-09,22.6067,22.61,,,,,,,,,,1.89,173.333333333,328.19,,,
1979-10,22.6067,22.61,,,,,,,,,,1.89,173.333333333,328.19,,,
1979-11,22.9177,22.92,,,,,,,,,,1.89,173.333333333,328.19,,,
1979-12,23.2287,23.23,,,,,,,,,,1.97,173.333333333,341.67,,,
1980-01,23.3948,23.39,,,,,,,,,,1.97,173.333333333,341.67,,,
1980-02,23.3948,23.39,,,,,,,,,,1.97,173.333333333,341.67,,,
1980-03,23.9802,23.98,,,,,,,,,,2.04,173.333333333,353.3,,,
1980-04,24.3888,24.39,,,,,,,,,,2.04,173.333333333,353.3,,,
1980-05,24.3888,24.39,,,,,,,,,,2.08,173.333333333,360.96,,,
1980-06,24.3888,24.39,,,,,,,,,,2.08,173.333333333,360.96,,,
1980-07,25.1266,25.13,,,,,,,,,,2.13,173.333333333,369.94,,,
1980-08,25.1266,25.13,,,,,,,,,,2.13,173.333333333,369.94,,,
1980-09,25.1266,25.13,,,,,,,,,,2.18,173.333333333,377.61,,,
1980-10,26.1496,26.15,,,,,,,,,,2.18,173.333333333,377.61,,,
1980-11,26.1496,26.15,,,,,,,,,,2.18,173.333333333,377.61,,,
1980-12,26.1496,26.15,,,,,,,,,,2.25,173.333333333,390.82,,,
1981-01,26.8508,26.85,,,,,,,,,,2.25,173.333333333,390.82,,,
1981-02,26.8508,26.85,,,,,,,,,,2.25,173.333333333,390.82,,,
1981-03,26.8508,26.85,,,,,,,,,,2.32,173.333333333,401.65,,,
1981-04,27.6603,27.66,,,,,,,,,,2.32,173.333333333,401.65,,,
1981-05,27.6603,27.66,,,,,,,,,,2.32,173.333333333,401.65,,,
1981-06,27.6603,27.66,,,,,,,,,,2.55,173.333333333,441.82,,,
1981-07,28.572,28.57,,,,,,,,,,2.55,173.333333333,441.82,,,
1981-08,28.572,28.57,,,,,,,,,,2.55,173.333333333,441.82,,,
1981-09,28.572,28.57,,,,,,,,,,2.64,173.333333333,458.2,,,
1981-10,30.0172,30.02,,,,,,,,,,2.64,173.333333333,458.2,,,
1981-11,30.0172,30.02,,,,,,,,,,2.71,173.333333333,469.3,,,
1981-12,30.0172,30.02,,,,,,,,,,2.71,173.333333333,469.3,,,
1982-01,30.9563,30.96,,,,,,,,,,2.77,173.333333333,479.6,,,
1982-02,30.9563,30.96,,,,,,,,,,2.77,173.333333333,479.6,,,
1982-03,30.9563,30.96,,,,,,,,,,2.84,169,479.72,,,
1982-04,31.8359,31.84,,,,,,,,,,2.84,169,479.72,,,
1982-05,31.8359,31.84,,,,,,,,,,2.9,169,490.29,,,
1982-06,31.8359,31.84,,,,,,,,,,2.9,169,490.29,,,
1982-07,31.8359,31.84,,,,,,,,,,2.99,169,506,,,
1982-08,31.8359,31.84,,,,,,,,,,2.99,169,506,,,
1982-09,31.8359,31.84,,,,,,,,,,2.99,169,506,,,
1982-10,31.8359,31.84,,,,,,,,,,2.99,169,506,,,
1982-11,33.086,33.09,,,,,,,,,,2.99,169,506,,,
1982-12,33.3931833333,33.39,,,,,,,,,,3.09,169,522.75,,,
1983-01,34.0381714286,34.04,,,,,,,,,,3.09,169,522.75,,,
1983-02,34.0381714286,34.04,,,,,,,,,,3.09,169,522.75,,,
1983-03,34.0381714286,34.04,,,,,,,,,,3.2,169,541.56,,,
1983-04,34.712075,34.71,,,,,,,,,,3.2,169,541.56,,,
1983-05,34.712075,34.71,,,,,,,,,,3.2,169,541.56,,,
1983-06,34.712075,34.71,,,,,,,,,,3.3,169,557.79,,,
1983-07,35.3860875,35.39,,,,,,,,,,3.34,169,563.97,,,
1983-08,35.3860875,35.39,,,,,,,,,,3.34,169,563.97,,,
1983-09,35.3860875,35.39,,,,,,,,,,3.34,169,563.97,,,
1983-10,35.3860875,35.39,,,,,,,,,,3.4,169,575.31,,,
1983-11,36.4210454545,36.42,,,,,,,,,,3.4,169,575.31,,,
1983-12,36.4210454545,36.42,,,,,,,,,,3.4,169,575.31,,,
1984-01,37.4308,37.43,,,,,,,,,,3.47,169,586.9,,,
1984-02,37.4308,37.43,,,,,,,,,,3.47,169,586.9,,,
1984-03,37.4308,37.43,,,,,,,,,,3.47,169,586.9,,,
1984-04,37.8058,37.81,,,,,,,,,,3.47,169,586.9,,,
1984-05,37.8058,37.81,,,,,,,,,,3.59,169,607,,,
1984-06,37.8058,37.81,,,,,,,,,,3.59,169,607,,,
1984-07,37.8058,37.81,,,,,,,,,,3.63,169,614.21,,,
1984-08,37.8058,37.81,,,,,,,,,,3.63,169,614.21,,,
1984-09,37.8058,37.81,,,,,,,,,,3.63,169,614.21,,,
1984-10,37.8058,37.81,,,,,,,,,,3.63,169,614.21,,,
1984-11,38.5544,38.55,,,,,,,,,,3.71,169,627.61,,,
1984-12,38.5544,38.55,,,,,,,,,,3.71,169,627.61,,,
1985-01,38.5544,38.55,,,,,,,,,,3.71,169,627.61,,,
1985-02,39.1321,39.13,,,,,,,,,,3.71,169,627.61,,,
1985-03,39.1321,39.13,,,,,,,,,,3.71,169,627.61,,,
1985-04,39.1321,39.13,,,,,,,,,,3.8,169,641.52,,,
1985-05,39.1321,39.13,,,,,,,,,,3.89,169,658.01,,,
1985-06,39.1321,39.13,,,,,,,,,,3.89,169,658.01,,,
1985-07,39.7114,39.71,,,,,,,,,,3.97,169,670.89,,,
1985-08,39.7114,39.71,,,,,,,,,,3.97,169,670.89,,,
1985-09,39.7114,39.71,,,,,,,,,,3.97,169,670.89,,,
1985-10,39.7114,39.71,,,,,,,,,,3.97,169,670.89,,,
1985-11,40.2892,40.29,27.44,73.18,109.76,36.59,0.03,0.08,0.06,380,621,3.97,169,670.89,,,
1985-12,40.2892,40.29,27.44,73.18,109.76,36.59,0.03,0.08,0.06,380,621,3.97,169,670.89,,,
1986-01,40.2892,40.29,27.44,73.18,109.76,36.59,0.03,0.08,0.06,380,621,3.97,169,670.89,,,
1986-02,40.2892,40.29,27.44,73.18,109.76,36.59,0.03,0.08,0.06,380,621,3.97,169,670.89,,,
1986-03,40.2892,40.29,27.44,73.18,109.76,36.59,0.03,0.08,0.06,380,621,3.97,169,670.89,,,
1986-04,40.2892,40.29,27.44,73.18,109.76,36.59,0.03,0.08,0.06,380,621,3.97,169,670.89,,,
1986-05,40.2892,40.29,27.44,73.18,109.76,36.59,0.03,0.08,0.06,380,621,3.97,169,670.89,,,
1986-06,40.2892,40.29,27.44,73.18,109.76,36.59,0.03,0.08,0.06,380,621,4.05,169,685.06,,,
1986-07,40.2892,40.29,27.44,73.18,109.76,36.59,0.03,0.08,0.06,380,621,4.1,169,693.56,,,
1986-08,40.2892,40.29,27.44,73.18,109.76,36.59,0.03,0.08,0.06,380,621,4.1,169,693.56,,,
1986-09,40.2892,40.29,27.44,73.18,109.76,36.59,0.03,0.08,0.06,380,621,4.1,169,693.56,,,
1986-10,40.2892,40.29,27.44,73.18,109.76,36.59,0.03,0.08,0.06,380,621,4.1,169,693.56,,,
1986-11,40.2892,40.29,27.44,73.18,109.76,36.59,0.03,0.08,0.06,380,621,4.1,169,693.56,,,
1986-12,40.2892,40.29,27.44,73.18,109.76,36.59,0.03,0.08,0.06,380,621,4.1,169,693.56,,,
1987-01,40.2892,40.29,27.44,73.18,109.76,36.59,0.03,0.08,0.06,380,621,4.1,169,693.56,,,
1987-02,40.2892,40.29,27.44,73.18,109.76,36.59,0.03,0.08,0.06,380,621,4.1,169,693.56,,,
1987-03,40.5316,40.53,27.44,73.18,109.76,36.59,0.03,0.08,0.06,380,621,4.2,169,710.31,,,
1987-04,40.5316,40.53,27.44,73.18,109.76,36.59,0.03,0.08,0.06,380,621,4.2,169,710.31,,,
1987-05,40.5316,40.53,27.44,73.18,109.76,36.59,0.03,0.08,0.06,380,621,4.2,169,710.31,,,
1987-06,40.5316,40.53,27.44,73.18,109.76,36.59,0.03,0.08,0.06,380,621,4.2,169,710.31,,,
1987-07,40.5316,40.53,27.44,73.18,109.76,36.59,0.03,0.08,0.06,380,621,4.24,169,717.27,,,
1987-08,40.7328529157,40.73,27.44,73.18,109.76,36.59,0.03,0.08,0.06,380,621,4.24,169,717.27,,,
1987-09,40.7328529157,40.73,27.44,73.18,109.76,36.59,0.03,0.08,0.06,380,621,4.24,169,717.27,,,
1987-10,40.7328529157,40.73,27.44,73.18,109.76,36.59,0.03,0.08,0.06,380,621,4.24,169,717.27,,,
1987-11,40.7328529157,40.73,27.44,73.18,109.76,36.59,0.03,0.08,0.06,380,621,4.24,169,717.27,,,
1987-12,40.7328529157,40.73,27.44,73.18,109.76,36.59,0.03,0.08,0.06,380,621,4.24,169,717.27,,,
1988-01,40.7328529157,40.73,27.44,73.18,109.76,36.59,0.03,0.08,0.06,380,621,4.24,169,717.27,,,
1988-02,40.7328529157,40.73,27.44,128.06,182.94,54.88,0.03,0.08,0.06,382,623,4.24,169,717.27,,,
1988-03,41.5469,41.55,27.44,128.06,182.94,54.88,0.03,0.08,0.06,440,716,4.24,169,717.27,,,
1988-04,41.5469,41.55,27.44,128.06,182.94,54.88,0.03,0.08,0.06,440,716,4.24,169,717.27,,,
1988-05,41.5469,41.55,27.44,128.06,182.94,54.88,0.03,0.08,0.06,440,716,4.24,169,717.27,,,
1988-06,41.5469,41.55,27.44,128.06,182.94,54.88,0.03,0.08,0.06,440,716,4.34,169,733.76,,,
1988-07,41.5469,41.55,27.44,128.06,182.94,54.88,0.03,0.08,0.06,440,716,4.38,169,740.97,,,
1988-08,41.5469,41.55,27.44,128.06,182.94,54.88,0.03,0.08,0.06,440,716,4.38,169,740.97,,,
1988-09,41.9585,41.96,27.44,128.06,182.94,54.88,0.03,0.08,0.06,440,716,4.38,169,740.97,,,
1988-10,41.9585,41.96,27.44,128.06,182.94,54.88,0.03,0.08,0.06,442,716,4.38,169,740.97,,,
1988-11,41.9585,41.96,27.44,128.06,182.94,54.88,0.03,0.08,0.06,442,716,4.38,169,740.97,,,
1988-12,41.9585,41.96,27.44,128.06,182.94,54.88,0.03,0.08,0.06,442,716,4.38,169,740.97,,,
1989-01,41.9585,41.96,27.44,128.06,182.94,54.88,0.03,0.08,0.06,442,716,4.38,169,740.97,,,
1989-02,41.9585,41.96,27.44,128.06,182.94,54.88,0.03,0.08,0.06,442,716,4.38,169,740.97,,,
1989-03,42.3778,42.38,27.44,128.06,182.94,54.88,0.03,0.08,0.06,442,716,4.48,169,756.43,,,
1989-04,42.3778,42.38,27.44,128.06,182.94,54.88,0.03,0.08,0.06,442,716,4.48,169,756.43,,,
1989-05,42.3778,42.38,27.44,128.06,182.94,54.88,0.03,0.08,0.06,442,716,4.48,169,756.43,,,
1989-06,42.3778,42.38,27.44,128.06,182.94,54.88,0.03,0.08,0.06,442,716,4.48,169,756.43,,,
1989-07,42.3778,42.38,27.44,128.06,182.94,54.88,0.03,0.08,0.06,442,716,4.56,169,770.6,,,
1989-08,42.3778,42.38,27.44,128.06,182.94,54.88,0.03,0.08,0.06,442,716,4.56,169,770.6,,,
1989-09,42.8824,42.88,27.44,128.06,182.94,54.88,0.03,0.08,0.06,442,716,4.56,169,770.6,,,
1989-10,42.8824,42.88,27.44,128.06,182.94,54.88,0.03,0.08,0.06,442,716,4.56,169,770.6,,,
1989-11,42.8824,42.88,27.44,128.06,182.94,54.88,0.03,0.08,0.06,442,716,4.56,169,770.6,,,
1989-12,42.8824,42.88,27.44,128.06,182.94,54.88,0.03,0.08,0.06,442,716,4.56,169,770.6,,,
1990-01,43.0973,43.1,27.44,128.06,182.94,54.88,0.03,0.08,0.06,444,716,4.56,169,770.6,,,
1990-02,43.0973,43.1,27.44,128.06,182.94,54.88,0.03,0.08,0.06,443,716,4.56,169,770.6,,,
1990-03,43.0973,43.1,27.44,128.06,182.94,54.88,0.03,0.08,0.06,443,716,4.56,169,770.6,,,
1990-04,43.6111,43.61,27.44,128.06,182.94,54.88,0.03,0.08,0.06,443,716,4.65,169,786.06,,,
1990-05,43.6111,43.61,27.44,128.06,182.94,54.88,0.03,0.08,0.06,443,716,4.65,169,786.06,,,
1990-06,43.6111,43.61,27.44,128.06,182.94,54.88,0.03,0.08,0.06,443,716,4.65,169,786.06,,,
1990-07,43.6111,43.61,27.44,128.06,182.94,54.88,0.03,0.08,0.06,443,716,4.77,169,805.89,,,
1990-08,43.6111,43.61,27.44,128.06,182.94,54.88,0.03,0.08,0.06,443,716,4.77,169,805.89,,,
1990-09,43.6111,43.61,27.44,128.06,182.94,54.88,0.03,0.08,0.06,443,716,4.77,169,805.89,,,
1990-10,43.6111,43.61,27.44,128.06,182.94,54.88,0.03,0.08,0.06,443,716,4.77,169,805.89,,,
1990-11,43.6111,43.61,27.44,128.06,182.94,54.88,0.03,0.08,0.06,443,716,4.77,169,805.89,,,
1990-12,44.1691,44.17,27.44,128.06,182.94,54.88,0.03,0.08,0.06,443,716,4.87,169,822.9,,,
1991-01,44.1691,44.17,27.44,128.06,182.94,54.88,0.03,0.08,0.06,443,716,4.87,169,822.9,,,
1991-02,44.1691,44.17,27.44,128.06,182.94,54.88,0.03,0.08,0.06,443,716,4.87,169,822.9,,,
1991-03,44.1691,44.17,27.44,128.06,182.94,54.88,0.03,0.08,0.06,443,716,4.87,169,822.9,,,
1991-04,44.1691,44.17,27.44,128.06,182.94,54.88,0.03,0.08,0.06,443,716,4.87,169,822.9,,,
1991-05,44.1691,44.17,27.44,128.06,182.94,54.88,0.03,0.08,0.06,443,716,4.87,169,822.9,,,
1991-06,44.1691,44.17,27.44,128.06,182.94,54.88,0.03,0.08,0.06,443,716,4.87,169,822.9,,,
1991-07,44.1691,44.17,27.44,128.06,182.94,54.88,0.03,0.08,0.06,443,716,4.98,169,841.45,,,
1991-08,44.3901,44.39,27.44,128.06,182.94,54.88,0.03,0.08,0.06,446,716,4.98,169,841.45,,,
1991-09,44.3901,44.39,27.44,128.06,182.94,54.88,0.03,0.08,0.06,446,716,4.98,169,841.45,,,
1991-10,44.3901,44.39,27.44,128.06,182.94,54.88,0.03,0.08,0.06,446,716,4.98,169,841.45,,,
1991-11,44.8322,44.83,27.44,128.06,182.94,54.88,0.03,0.08,0.06,446,716,4.98,169,841.45,,,
1991-12,44.8322,44.83,27.44,128.06,182.94,54.88,0.03,0.08,0.06,446,716,4.98,169,841.45,,,
1992-01,44.8322,44.83,27.44,128.06,182.94,54.88,0.03,0.08,0.06,446,716,4.98,169,841.45,,,
1992-02,45.4054,45.41,27.44,128.06,182.94,54.88,0.03,0.08,0.06,446,716,4.98,169,841.45,,,
1992-03,45.4054,45.41,27.44,128.06,182.94,54.88,0.03,0.08,0.06,446,716,5.08,169,858.19,,,
1992-04,45.4054,45.41,27.44,128.06,182.94,54.88,0.03,0.08,0.06,446,716,5.08,169,858.19,,,
1992-05,45.4054,45.41,27.44,128.06,182.94,54.88,0.03,0.08,0.06,446,716,5.08,169,858.19,,,
1992-06,45.4054,45.41,27.44,128.06,182.94,54.88,0.03,0.08,0.06,446,716,5.08,169,858.19,,,
1992-07,45.4054,45.41,27.44,128.06,182.94,54.88,0.03,0.08,0.06,446,716,5.19,169,877.52,,,
1992-08,45.4054,45.41,27.44,128.06,182.94,54.88,0.03,0.08,0.06,446,716,5.19,169,877.52,,,
1992-09,45.4054,45.41,27.44,128.06,182.94,54.88,0.03,0.08,0.06,446,716,5.19,169,877.52,,,
1992-10,46.0244,46.02,27.44,128.06,182.94,54.88,0.03,0.08,0.06,446,716,5.19,169,877.52,,,
1992-11,46.0244,46.02,27.44,128.06,182.94,54.88,0.03,0.08,0.06,446,716,5.19,169,877.52,,,
1992-12,46.0244,46.02,27.44,128.06,182.94,54.88,0.03,0.08,0.06,446,716,5.19,169,877.52,,,
1993-01,46.0244,46.02,27.44,128.06,182.94,54.88,0.03,0.08,0.06,446,716,5.19,169,877.52,,,
1993-02,46.8186,46.82,27.44,128.06,182.94,54.88,0.03,0.08,0.06,446,716,5.19,169,877.52,,,
1993-03,46.8186,46.82,27.44,128.06,182.94,54.88,0.03,0.08,0.06,446,716,5.19,169,877.52,,,
1993-04,46.8186,46.82,27.44,128.06,182.94,54.88,0.03,0.08,0.06,446,716,5.19,169,877.52,,,
1993-05,46.8186,46.82,27.44,128.06,182.94,54.88,0.03,0.08,0.06,446,716,5.19,169,877.52,,,
1993-06,46.8186,46.82,27.44,128.06,182.94,54.88,0.03,0.08,0.06,446,716,5.19,169,877.52,,,
1993-07,46.8186,46.82,27.44,128.06,182.94,54.88,0.03,0.08,0.06,446,716,5.31,169,897.36,,,
1993-08,46.8186,46.82,27.44,128.06,182.94,54.88,0.03,0.08,0.06,446,716,5.31,169,897.36,,,
1993-09,46.8186,46.82,27.44,128.06,182.94,54.88,0.03,0.08,0.06,446,716,5.31,169,897.36,,,
1993-10,46.8186,46.82,27.44,128.06,182.94,54.88,0.03,0.08,0.06,446,716,5.31,169,897.36,,,
1993-11,46.8186,46.82,27.44,128.06,182.94,54.88,0.03,0.08,0.06,446,716,5.31,169,897.36,,,
1993-12,46.8186,46.82,27.44,128.06,182.94,54.88,0.03,0.08,0.06,446,716,5.31,169,897.36,,,
1994-01,47.2165,47.22,27.44,128.06,182.94,54.88,0.03,0.08,0.06,446,716,5.31,169,897.36,,,
1994-02,47.2165,47.22,27.44,128.06,182.94,54.88,0.03,0.08,0.06,446,716,5.31,169,897.36,,,
1994-03,47.2165,47.22,27.44,128.06,182.94,54.88,0.03,0.08,0.06,446,716,5.31,169,897.36,,,
1994-04,47.2165,47.22,27.44,128.06,182.94,54.88,0.03,0.08,0.06,446,716,5.31,169,897.36,,,
1994-05,47.2165,47.22,27.44,128.06,182.94,54.88,0.03,0.08,0.06,446,716,5.31,169,897.36,,,
1994-06,47.2165,47.22,27.44,128.06,182.94,54.88,0.03,0.08,0.06,446,716,5.31,169,897.36,,,
1994-07,47.2165,47.22,27.44,128.06,182.94,54.88,0.03,0.08,0.06,446,716,5.42,169,916.16,,,
1994-08,47.45205,47.45,27.44,128.06,182.94,54.88,0.03,0.08,0.06,446,716,5.42,169,916.16,,,
1994-09,47.45205,47.45,27.44,128.06,182.94,54.88,0.03,0.08,0.06,446,716,5.42,169,916.16,,,
1994-10,47.45205,47.45,27.44,128.06,182.94,54.88,0.03,0.08,0.06,446,716,5.42,169,916.16,,,
1994-11,47.45205,47.45,27.44,128.06,182.94,54.88,0.03,0.08,0.06,446,716,5.42,169,916.16,,,
1994-12,47.9025,47.9,27.44,128.06,182.94,54.88,0.03,0.08,0.06,446,716,5.42,169,916.16,,,
1995-01,47.9025,47.9,27.44,128.06,182.94,54.88,0.03,0.08,0.06,446,716,5.42,169,916.16,,,
1995-02,47.9025,47.9,27.44,128.06,182.94,54.88,0.03,0.08,0.06,446,716,5.42,169,916.16,,,
1995-03,48.4773,48.48,27.44,128.06,182.94,54.88,0.03,0.08,0.06,446,716,5.42,169,916.16,,,
1995-04,48.4773,48.48,27.44,128.06,182.94,54.88,0.03,0.08,0.06,446,716,5.42,169,916.16,,,
1995-05,48.4773,48.48,27.44,128.06,182.94,54.88,0.03,0.08,0.06,446,716,5.42,169,916.16,,,
1995-06,48.4773,48.48,27.44,128.06,182.94,54.88,0.03,0.08,0.06,446,716,5.42,169,916.16,,,
1995-07,48.4773,48.48,27.44,128.06,182.94,54.88,0.03,0.08,0.06,446,716,5.64,169,952.75,,,
1995-08,48.4773,48.48,27.44,128.06,182.94,54.88,0.03,0.08,0.06,446,716,5.64,169,952.75,,,
1995-09,48.4773,48.48,27.44,128.06,182.94,54.88,0.03,0.08,0.06,446,716,5.64,169,952.75,,,
1995-10,48.4773,48.48,27.44,128.06,182.94,54.88,0.03,0.08,0.06,446,716,5.64,169,952.75,,,
1995-11,49.1557,49.16,27.44,128.06,182.94,54.88,0.03,0.08,0.06,446,716,5.64,169,952.75,,,
1995-12,49.1557,49.16,27.44,128.06,182.94,54.88,0.03,0.08,0.06,446,716,5.64,169,952.75,,,
1996-01,49.1557,49.16,27.44,128.06,182.94,54.88,0.03,0.08,0.06,446,716,5.64,169,952.75,,,
1996-02,49.1557,49.16,27.44,128.06,182.94,54.88,0.03,0.08,0.06,446,716,5.64,169,952.75,,,
1996-03,49.1557,49.16,27.44,128.06,182.94,54.88,0.03,0.08,0.06,446,716,5.64,169,952.75,,,
1996-04,49.1557,49.16,27.44,128.06,182.94,54.88,0.03,0.08,0.06,446,716,5.64,169,952.75,,,
1996-05,49.1557,49.16,27.44,128.06,182.94,54.88,0.03,0.08,0.06,446,716,5.75,169,971.81,,,
1996-06,49.1557,49.16,27.44,128.06,182.94,54.88,0.03,0.08,0.06,446,716,5.75,169,971.81,,,
1996-07,49.1557,49.16,27.44,128.06,182.94,54.88,0.03,0.08,0.06,446,716,5.78,169,976.71,,,
1996-08,49.1557,49.16,27.44,128.06,182.94,54.88,0.03,0.08,0.06,446,716,5.78,169,976.71,,,
1996-09,49.1557,49.16,27.44,128.06,182.94,54.88,0.03,0.08,0.06,446,716,5.78,169,976.71,,,
1996-10,49.1557,49.16,27.44,128.06,182.94,54.88,0.03,0.08,0.06,446,716,5.78,169,976.71,,,
1996-11,49.1557,49.16,27.44,128.06,182.94,54.88,0.03,0.08,0.06,446,716,5.78,169,976.71,,,
1996-12,49.1557,49.16,27.44,128.06,182.94,54.88,0.03,0.08,0.06,446,716,5.78,169,976.71,,,
1997-01,49.1557,49.16,27.44,128.06,182.94,54.88,0.03,0.08,0.06,446,716,5.78,169,976.71,,,
1997-02,49.1557,49.16,27.44,128.06,182.94,54.88,0.03,0.08,0.06,446,716,5.78,169,976.71,,,
1997-03,49.4011,49.4,27.44,128.06,182.94,54.88,0.03,0.08,0.06,446,716,5.78,169,976.71,,,
1997-04,49.4011,49.4,27.44,128.06,182.94,54.88,0.03,0.08,0.06,446,716,5.78,169,976.71,,,
1997-05,49.4011,49.4,27.44,128.06,182.94,54.88,0.03,0.08,0.06,446,716,5.78,169,976.71,,,
1997-06,49.4011,49.4,27.44,128.06,182.94,54.88,0.03,0.08,0.06,446,716,5.78,169,976.71,,,
1997-07,49.4011,49.4,27.44,128.06,182.94,54.88,0.03,0.08,0.06,446,716,6.01,169,1015.87,,,
1997-08,49.4011,49.4,27.44,128.06,182.94,54.88,0.03,0.08,0.06,446,716,6.01,169,1015.87,,,
1997-09,49.4011,49.4,27.44,128.06,182.94,54.88,0.03,0.08,0.06,446,716,6.01,169,1015.87,,,
1997-10,49.648,49.65,27.44,128.06,182.94,54.88,0.03,0.08,0.06,446,716,6.01,169,1015.87,,,
1997-11,49.648,49.65,27.44,128.06,182.94,54.88,0.03,0.08,0.06,446,716,6.01,169,1015.87,,,
1997-12,49.648,49.65,27.44,128.06,182.94,54.88,0.03,0.08,0.06,446,716,6.01,169,1015.87,,,
1998-01,49.648,49.65,27.44,128.06,182.94,54.88,0.03,0.08,0.06,446,716,6.01,169,1015.87,,,
1998-02,49.648,49.65,27.44,128.06,182.94,54.88,0.03,0.08,0.06,446,716,6.01,169,1015.87,,,
1998-03,49.648,49.65,27.44,128.06,182.94,54.88,0.03,0.08,0.06,446,716,6.01,169,1015.87,,,
1998-04,50.0459,50.05,27.44,128.06,182.94,54.88,0.03,0.08,0.06,446,716,6.01,169,1015.87,,,
1998-05,50.0459,50.05,27.44,128.06,182.94,54.88,0.03,0.08,0.06,446,716,6.01,169,1015.87,,,
1998-06,50.0459,50.05,27.44,128.06,182.94,54.88,0.03,0.08,0.06,446,716,6.01,169,1015.87,,,
1998-07,50.0459,50.05,27.44,128.06,182.94,54.88,0.03,0.08,0.06,446,716,6.13,169,1036.22,,,
1998-08,50.0459,50.05,27.44,128.06,182.94,54.88,0.03,0.08,0.06,446,716,6.13,169,1036.22,,,
1998-09,50.0459,50.05,27.44,128.06,182.94,54.88,0.03,0.08,0.06,446,716,6.13,169,1036.22,,,
1998-10,50.0459,50.05,27.44,128.06,182.94,54.88,0.03,0.08,0.06,446,716,6.13,169,1036.22,,,
1998-11,50.2929,50.29,27.44,128.06,182.94,54.88,0.03,0.08,0.06,446,716,6.13,169,1036.22,,,
1998-12,50.2929,50.29,27.44,128.06,182.94,54.88,0.03,0.08,0.06,446,716,6.13,169,1036.22,,,
1999-01,50.2929,50.29,27.44,128.06,182.94,54.88,0.03,0.08,0.06,446,716,6.13,169,1036.22,,,
1999-02,50.2929,50.29,27.44,128.06,182.94,54.88,0.03,0.08,0.06,446,716,6.13,169,1036.22,,,
1999-03,50.2929,50.29,27.44,128.06,182.94,54.88,0.03,0.08,0.06,447,716,6.13,169,1036.22,,,
1999-04,50.5444,50.54,27.44,128.06,182.94,54.88,0.03,0.08,0.06,447,716,6.13,169,1036.22,,,
1999-05,50.5444,50.54,27.44,128.06,182.94,54.88,0.03,0.08,0.06,447,716,6.13,169,1036.22,,,
1999-06,50.5444,50.54,27.44,128.06,182.94,54.88,0.03,0.08,0.06,447,716,6.13,169,1036.22,,,
1999-07,50.5444,50.54,27.44,128.06,182.94,54.88,0.03,0.08,0.06,447,716,6.21,169,1049.11,,,
1999-08,50.5444,50.54,27.44,128.06,182.94,54.88,0.03,0.08,0.06,447,716,6.21,169,1049.11,,,
1999-09,50.5444,50.54,27.44,128.06,182.94,54.88,0.03,0.08,0.06,447,716,6.21,169,1049.11,,,
1999-10,50.5444,50.54,27.44,128.06,182.94,54.88,0.03,0.08,0.06,447,716,6.21,169,1049.11,,,
1999-11,50.5444,50.54,27.44,128.06,182.94,54.88,0.03,0.08,0.06,447,716,6.21,169,1049.11,,,
1999-12,50.9469,50.95,27.44,128.06,182.94,54.88,0.03,0.08,0.06,447,716,6.21,169,1049.11,,,
2000-01,50.9469,50.95,27.44,128.06,182.94,54.88,0.03,0.08,0.06,447,716,6.21,169,1049.11,,,
2000-02,50.9469,50.95,27.44,128.06,182.94,54.88,0.03,0.08,0.06,447,716,6.21,169,1049.11,,,
2000-03,50.9469,50.95,27.44,128.06,182.94,54.88,0.03,0.08,0.06,447,716,6.21,169,1049.11,,,
2000-04,50.9469,50.95,27.44,128.06,182.94,54.88,0.03,0.08,0.06,447,716,6.21,169,1049.11,,,
2000-05,50.9469,50.95,27.44,128.06,182.94,54.88,0.03,0.08,0.06,447,716,6.21,169,1049.11,,,
2000-06,50.9469,50.95,27.44,128.06,182.94,54.88,0.03,0.08,0.06,447,716,6.21,169,1049.11,,,
2000-07,50.9469,50.95,27.44,128.06,182.94,54.88,0.03,0.08,0.06,447,716,6.41,169,1082.6,,,
2000-08,50.9469,50.95,27.44,128.06,182.94,54.88,0.03,0.08,0.06,447,716,6.41,169,1082.6,,,
2000-09,50.9469,50.95,27.44,128.06,182.94,54.88,0.03,0.08,0.06,447,716,6.41,169,1082.6,,,
2000-10,50.9469,50.95,27.44,128.06,182.94,54.88,0.03,0.08,0.06,447,716,6.41,169,1082.6,,,
2000-11,50.9469,50.95,27.44,128.06,182.94,54.88,0.03,0.08,0.06,447,716,6.41,169,1082.6,,,
2000-12,51.2015,51.2,27.44,128.06,182.94,54.88,0.03,0.08,0.06,447,716,6.41,169,1082.6,,,
2001-01,51.2015,51.2,27.44,128.06,182.94,54.88,0.03,0.08,0.06,447,716,6.41,169,1082.6,,,
2001-02,51.2015,51.2,27.44,128.06,182.94,54.88,0.03,0.08,0.06,447,716,6.41,169,1082.6,,,
2001-03,51.2015,51.2,27.44,128.06,182.94,54.88,0.03,0.08,0.06,447,716,6.41,169,1082.6,,,
2001-04,51.2015,51.2,27.44,128.06,182.94,54.88,0.03,0.08,0.06,447,716,6.41,169,1082.6,,,
2001-05,51.4576,51.46,27.44,128.06,182.94,54.88,0.03,0.08,0.06,447,716,6.41,169,1082.6,,,
2001-06,51.4576,51.46,27.44,128.06,182.94,54.88,0.03,0.08,0.06,447,716,6.41,169,1082.6,,,
2001-07,51.4576,51.46,27.44,128.06,182.94,54.88,0.03,0.08,0.06,447,716,6.67,151.67,1010.89,,,
2001-08,51.4576,51.46,27.44,128.06,182.94,54.88,0.03,0.08,0.06,447,716,6.67,151.67,1010.89,,,
2001-09,51.4576,51.46,27.44,128.06,182.94,54.88,0.03,0.08,0.06,447,716,6.67,151.67,1010.89,,,
2001-10,51.4576,51.46,27.44,128.06,182.94,54.88,0.03,0.08,0.06,447,716,6.67,151.67,1010.89,,,
2001-11,51.8174,51.82,27.44,128.06,182.94,54.88,0.03,0.08,0.06,447,716,6.67,151.67,1010.89,,,
2001-12,51.8174,51.82,27.44,128.06,182.94,54.88,0.03,0.08,0.06,447,716,6.67,151.67,1010.89,,,
2002-01,51.8174,51.82,2.29,10.67,15.24,4.57,0.03,0.08,0.06,448,716,6.67,151.67,1011.6389,,,
2002-02,51.8174,51.82,2.29,10.67,15.24,4.57,0.03,0.08,0.06,448,716,6.67,151.67,1011.6389,,,
2002-03,52.1284,52.1284,2.29,10.67,15.24,4.57,0.03,0.08,0.06,448,716,6.67,151.67,1011.6389,,,
2002-04,52.1284,52.1284,2.29,10.67,15.24,4.57,0.03,0.08,0.06,448,716,6.67,151.67,1011.6389,,,
2002-05,52.1284,52.1284,2.29,10.67,15.24,4.57,0.03,0.08,0.06,448,716,6.67,151.67,1011.6389,,,
2002-06,52.1284,52.1284,2.29,10.67,15.24,4.57,0.03,0.08,0.06,448,716,6.67,151.67,1011.6389,,,
2002-07,52.1284,52.1284,2.29,10.67,15.24,4.57,0.03,0.08,0.06,448,716,6.83,151.67,1035.9061,,,
2002-08,52.1284,52.1284,2.29,10.67,15.24,4.57,0.03,0.08,0.06,448,716,6.83,151.67,1035.9061,,,
2002-09,52.1284,52.1284,2.29,10.67,15.24,4.57,0.03,0.08,0.06,448,716,6.83,151.67,1035.9061,,,
2002-10,52.1284,52.1284,2.29,10.67,15.24,4.57,0.03,0.08,0.06,448,716,6.83,151.67,1035.9061,,,
2002-11,52.1284,52.1284,2.29,10.67,15.24,4.57,0.03,0.08,0.06,448,716,6.83,151.67,1035.9061,,,
2002-12,52.4933,52.4933,2.29,10.67,15.24,4.57,0.03,0.08,0.06,448,716,6.83,151.67,1035.9061,,,
2003-01,52.4933,52.4933,2.29,10.67,15.24,4.57,0.03,0.08,0.06,448,716,6.83,151.67,1035.9061,,,
2003-02,52.4933,52.4933,2.29,10.67,15.24,4.57,0.03,0.08,0.06,448,716,6.83,151.67,1035.9061,,,
2003-03,52.4933,52.4933,2.29,10.67,15.24,4.57,0.03,0.08,0.06,448,716,6.83,151.67,1035.9061,,,
2003-04,52.4933,52.4933,2.29,10.67,15.24,4.57,0.03,0.08,0.06,448,716,6.83,151.67,1035.9061,,,
2003-05,52.4933,52.4933,2.29,10.67,15.24,4.57,0.03,0.08,0.06,448,716,6.83,151.67,1035.9061,,,
2003-06,52.4933,52.4933,2.29,10.67,15.24,4.57,0.03,0.08,0.06,448,716,6.83,151.67,1035.9061,,,
2003-07,52.4933,52.4933,2.29,10.67,15.24,4.57,0.03,0.08,0.06,448,716,7.19,151.67,1090.5073,,,
2003-08,52.4933,52.4933,2.29,10.67,15.24,4.57,0.03,0.08,0.06,448,716,7.19,151.67,1090.5073,,,
2003-09,52.4933,52.4933,2.29,10.67,15.24,4.57,0.03,0.08,0.06,448,716,7.19,151.67,1090.5073,,,
2003-10,52.4933,52.4933,2.29,10.67,15.24,4.57,0.03,0.08,0.06,448,716,7.19,151.67,1090.5073,,,
2003-11,52.4933,52.4933,2.29,10.67,15.24,4.57,0.03,0.08,0.06,448,716,7.19,151.67,1090.5073,,,
2003-12,52.4933,52.4933,2.29,10.67,15.24,4.57,0.03,0.08,0.06,448,716,7.19,151.67,1090.5073,,,
2004-01,52.7558,52.7558,2.29,10.67,15.24,4.57,0.03,0.08,0.06,448,716,7.19,151.67,1090.5073,,,
2004-02,52.7558,52.7558,2.29,10.67,15.24,4.57,0.03,0.08,0.06,448,716,7.19,151.67,1090.5073,,,
2004-03,52.7558,52.7558,2.29,10.67,15.24,4.57,0.03,0.08,0.06,448,716,7.19,151.67,1090.5073,,,
2004-04,52.7558,52.7558,2.29,10.67,15.24,4.57,0.03,0.08,0.06,448,716,7.19,151.67,1090.5073,,,
2004-05,52.7558,52.7558,2.29,10.67,15.24,4.57,0.03,0.08,0.06,448,716,7.19,151.67,1090.5073,,,
2004-06,52.7558,52.7558,2.29,10.67,15.24,4.57,0.03,0.08,0.06,448,716,7.19,151.67,1090.5073,,,
2004-07,52.7558,52.7558,2.29,10.67,15.24,4.57,0.03,0.08,0.06,448,716,7.61,151.67,1154.2087,,,
2004-08,52.7558,52.7558,2.29,10.67,15.24,4.57,0.03,0.08,0.06,448,716,7.61,151.67,1154.2087,,,
2004-09,52.7558,52.7558,2.29,10.67,15.24,4.57,0.03,0.08,0.06,448,716,7.61,151.67,1154.2087,,,
2004-10,52.7558,52.7558,2.29,10.67,15.24,4.57,0.03,0.08,0.06,448,716,7.61,151.67,1154.2087,,,
2004-11,52.7558,52.7558,2.29,10.67,15.24,4.57,0.03,0.08,0.06,448,716,7.61,151.67,1154.2087,,,
2004-12,52.7558,52.7558,2.29,10.67,15.24,4.57,0.03,0.08,0.06,448,716,7.61,151.67,1154.2087,,,
2005-01,52.7558,52.7558,2.29,10.67,15.24,4.57,0.03,0.08,0.06,448,716,7.61,151.67,1154.2087,,,
2005-02,53.0196,53.0196,2.29,10.67,15.24,4.57,0.03,0.08,0.06,448,716,7.61,151.67,1154.2087,,,
2005-03,53.0196,53.0196,2.29,10.67,15.24,4.57,0.03,0.08,0.06,448,716,7.61,151.67,1154.2087,,,
2005-04,53.0196,53.0196,2.29,10.67,15.24,4.57,0.03,0.08,0.06,448,716,7.61,151.67,1154.2087,,,
2005-05,53.0196,53.0196,2.29,10.67,15.24,4.57,0.03,0.08,0.06,448,716,7.61,151.67,1154.2087,,,
2005-06,53.0196,53.0196,2.29,10.67,15.24,4.57,0.03,0.08,0.06,448,716,7.61,151.67,1154.2087,,,
2005-07,53.2847,53.2847,2.29,10.67,15.24,4.57,0.03,0.08,0.06,448,716,8.03,151.67,1217.9101,,,
2005-08,53.2847,53.2847,2.29,10.67,15.24,4.57,0.03,0.08,0.06,448,716,8.03,151.67,1217.9101,,,
2005-09,53.2847,53.2847,2.29,10.67,15.24,4.57,0.03,0.08,0.06,448,716,8.03,151.67,1217.9101,,,
2005-10,53.2847,53.2847,2.29,10.67,15.24,4.57,0.03,0.08,0.06,448,716,8.03,151.67,1217.9101,,,
2005-11,53.711,53.711,2.29,10.67,15.24,4.57,0.03,0.08,0.06,448,716,8.03,151.67,1217.9101,,,
2005-12,53.711,53.711,2.29,10.67,15.24,4.57,0.03,0.08,0.06,448,716,8.03,151.67,1217.9101,,,
2006-01,53.711,53.711,2.29,10.67,15.24,4.57,0.03,0.08,0.06,448,716,8.03,151.67,1217.9101,,,
2006-02,53.711,53.711,2.29,10.67,15.24,4.57,0.03,0.08,0.06,448,716,8.03,151.67,1217.9101,,,
2006-03,53.711,53.711,2.29,10.67,15.24,4.57,0.03,0.08,0.06,448,716,8.03,151.67,1217.9101,,,
2006-04,53.711,53.711,2.29,10.67,15.24,4.57,0.03,0.08,0.06,448,716,8.03,151.67,1217.9101,,,
2006-05,53.711,53.711,2.29,10.67,15.24,4.57,0.03,0.08,0.06,448,716,8.03,151.67,1217.9101,,,
2006-06,53.711,53.711,2.29,10.67,15.24,4.57,0.03,0.08,0.06,448,716,8.03,151.67,1217.9101,,,
2006-07,53.9795,53.98,2.29,10.67,15.24,4.57,0.03,0.08,0.06,448,716,8.27,151.67,1254.3109,,,
2006-08,53.9795,53.98,2.29,10.67,15.24,4.57,0.03,0.08,0.06,448,716,8.27,151.67,1254.3109,,,
2006-09,53.9795,53.98,2.29,10.67,15.24,4.57,0.03,0.08,0.06,448,716,8.27,151.67,1254.3109,,,
2006-10,53.9795,53.98,2.29,10.67,15.24,4.57,0.03,0.08,0.06,448,716,8.27,151.67,1254.3109,,,
2006-11,53.9795,53.98,2.29,10.67,15.24,4.57,0.03,0.08,0.06,449,717,8.27,151.67,1254.3109,,,
2006-12,53.9795,53.98,2.29,10.67,15.24,4.57,0.03,0.08,0.06,449,717,8.27,151.67,1254.3109,,,
2007-01,53.9795,53.98,2.29,10.67,15.24,4.57,0.03,0.08,0.06,449,717,8.27,151.67,1254.3109,,,
2007-02,54.4113,54.41,2.29,10.67,15.24,4.57,0.03,0.08,0.06,449,717,8.27,151.67,1254.3109,,,
2007-03,54.4113,54.41,2.29,10.67,15.24,4.57,0.03,0.08,0.06,449,717,8.27,151.67,1254.3109,,,
2007-04,54.4113,54.41,2.29,10.67,15.24,4.57,0.03,0.08,0.06,449,717,8.27,151.67,1254.3109,,,
2007-05,54.4113,54.41,2.29,10.67,15.24,4.57,0.03,0.08,0.06,449,717,8.27,151.67,1254.3109,,,
2007-06,54.4113,54.41,2.29,10.67,15.24,4.57,0.03,0.08,0.06,449,717,8.27,151.67,1254.3109,,,
2007-07,54.4113,54.41,2.29,10.67,15.24,4.57,0.03,0.08,0.06,449,717,8.44,151.67,1280.0948,,,
2007-08,54.4113,54.41,2.29,10.67,15.24,4.57,0.03,0.08,0.06,449,717,8.44,151.67,1280.0948,,,
2007-09,54.4113,54.41,2.29,10.67,15.24,4.57,0.03,0.08,0.06,449,717,8.44,151.67,1280.0948,,,
2007-10,54.4113,54.41,2.29,10.67,15.24,4.57,0.03,0.08,0.06,449,717,8.44,151.67,1280.0948,,,
2007-11,54.4113,54.41,2.29,10.67,15.24,4.57,0.03,0.08,0.06,449,717,8.44,151.67,1280.0948,,,
2007-12,54.4113,54.41,2.29,10.67,15.24,4.57,0.03,0.08,0.06,449,717,8.44,151.67,1280.0948,,,
2008-01,54.4113,54.41,2.29,10.67,15.24,4.57,0.03,0.08,0.06,449,717,8.44,151.67,1280.0948,,,
2008-02,54.4113,54.41,2.29,10.67,15.24,4.57,0.03,0.08,0.06,449,717,8.44,151.67,1280.0948,,,
2008-03,54.6834,54.68,2.29,10.67,15.24,4.57,0.03,0.08,0.06,449,717,8.44,151.67,1280.0948,,,
2008-04,54.6834,54.68,2.29,10.67,15.24,4.57,0.03,0.08,0.06,449,717,8.44,151.67,1280.0948,,,
2008-05,54.6834,54.68,2.29,10.67,15.24,4.57,0.03,0.08,0.06,449,717,8.63,151.67,1308.9121,,,
2008-06,54.6834,54.68,2.29,10.67,15.24,4.57,0.03,0.08,0.06,449,717,8.63,151.67,1308.9121,,,
2008-07,54.6834,54.68,2.29,10.67,15.24,4.57,0.03,0.08,0.06,449,717,8.71,151.67,1321.0457,,,
2008-08,54.6834,54.68,2.29,10.67,15.24,4.57,0.03,0.08,0.06,449,717,8.71,151.67,1321.0457,,,
2008-09,54.6834,54.68,2.29,10.67,15.24,4.57,0.03,0.08,0.06,449,717,8.71,151.67,1321.0457,,,
2008-10,54.8475,54.8475,2.29,10.67,15.24,4.57,0.03,0.08,0.06,449,717,8.71,151.67,1321.0457,,,
2008-11,54.8475,54.8475,2.29,10.67,15.24,4.57,0.03,0.08,0.06,449,717,8.71,151.67,1321.0457,,,
2008-12,54.8475,54.8475,2.29,10.67,15.24,4.57,0.03,0.08,0.06,449,717,8.71,151.67,1321.0457,,,
2009-01,54.8475,54.8475,2.29,10.67,15.24,4.57,0.03,0.08,0.06,449,717,8.71,151.67,1321.0457,,,
2009-02,54.8475,54.8475,2.29,10.67,15.24,4.57,0.03,0.08,0.06,449,717,8.71,151.67,1321.0457,,,
2009-03,54.8475,54.8475,2.29,10.67,15.24,4.57,0.03,0.08,0.06,449,717,8.71,151.67,1321.0457,,,
2009-04,54.8475,54.8475,2.29,10.67,15.24,4.57,0.03,0.08,0.06,449,717,8.71,151.67,1321.0457,,,
2009-05,54.8475,54.8475,2.29,10.67,15.24,4.57,0.03,0.08,0.06,449,717,8.71,151.67,1321.0457,,,
2009-06,54.8475,54.8475,2.29,10.67,15.24,4.57,0.03,0.08,0.06,449,717,8.71,151.67,1321.0457,,,
2009-07,55.1217,55.1217,2.29,10.67,15.24,4.57,0.03,0.08,0.06,449,717,8.82,151.67,1337.7294,,,
2009-08,55.1217,55.1217,2.29,10.67,15.24,4.57,0.03,0.08,0.06,449,717,8.82,151.67,1337.7294,,,
2009-09,55.1217,55.1217,2.29,10.67,15.24,4.57,0.03,0.08,0.06,449,717,8.82,151.67,1337.7294,,,
2009-10,55.2871,55.2871,2.29,10.67,15.24,4.57,0.03,0.08,0.06,449,717,8.82,151.67,1337.7294,,,
2009-11,55.2871,55.2871,2.29,10.67,15.24,4.57,0.03,0.08,0.06,449,717,8.82,151.67,1337.7294,,,
2009-12,55.2871,55.2871,2.29,10.67,15.24,4.57,0.03,0.08,0.06,449,717,8.82,151.67,1337.7294,,,
2010-01,55.2871,55.2871,2.29,10.67,15.24,4.57,0.03,0.08,0.06,449,717,8.86,151.67,1343.7962,,,
2010-02,55.2871,55.2871,2.29,10.67,15.24,4.57,0.03,0.08,0.06,449,717,8.86,151.67,1343.7962,,,
2010-03,55.2871,55.2871,2.29,10.67,15.24,4.57,0.03,0.08,0.06,449,717,8.86,151.67,1343.7962,,,
2010-04,55.2871,55.2871,2.29,10.67,15.24,4.57,0.03,0.08,0.06,449,717,8.86,151.67,1343.7962,,,
2010-05,55.2871,55.2871,2.29,10.67,15.24,4.57,0.03,0.08,0.06,449,717,8.86,151.67,1343.7962,,,
2010-06,55.2871,55.2871,2.29,10.67,15.24,4.57,0.03,0.08,0.06,449,717,8.86,151.67,1343.7962,,,
2010-07,55.5635,55.5635,2.29,10.67,15.24,4.57,0.03,0.08,0.06,449,717,8.86,151.67,1343.7962,,,
2010-08,55.5635,55.5635,2.29,10.67,15.24,4.57,0.03,0.08,0.06,449,717,8.86,151.67,1343.7962,,,
2010-09,55.5635,55.5635,2.29,10.67,15.24,4.57,0.03,0.08,0.06,449,717,8.86,151.67,1343.7962,,,
2010-10,55.5635,55.5635,2.29,10.67,15.24,4.57,0.03,0.08,0.06,449,717,8.86,151.67,1343.7962,,,
2010-11,55.5635,55.5635,2.29,10.67,15.24,4.57,0.03,0.08,0.06,449,717,8.86,151.67,1343.7962,,,
2010-12,55.5635,55.5635,2.29,10.67,15.24,4.57,0.03,0.08,0.06,449,717,8.86,151.67,1343.7962,,,
2011-01,55.5635,55.5635,2.29,10.67,15.24,4.57,0.03,0.08,0.06,449,717,9,151.67,1365.03,,,
2011-02,55.5635,55.5635,2.29,10.67,15.24,4.57,0.03,0.08,0.06,449,717,9,151.67,1365.03,,,
2011-03,55.5635,55.5635,2.29,10.67,15.24,4.57,0.03,0.08,0.06,449,717,9,151.67,1365.03,,,
2011-04,55.5635,55.5635,2.29,10.67,15.24,4.57,0.03,0.08,0.06,449,717,9,151.67,1365.03,,,
2011-05,55.5635,55.5635,2.29,10.67,15.24,4.57,0.03,0.08,0.06,449,717,9,151.67,1365.03,,,
2011-06,55.5635,55.5635,2.29,10.67,15.24,4.57,0.03,0.08,0.06,449,717,9,151.67,1365.03,,,
2011-07,55.5635,55.5635,2.29,10.67,15.24,4.57,0.03,0.08,0.06,449,717,9,151.67,1365.03,,,
2011-08,55.5635,55.5635,2.29,10.67,15.24,4.57,0.03,0.08,0.06,449,717,9,151.67,1365.03,,,
2011-09,55.5635,55.5635,2.29,10.67,15.24,4.57,0.03,0.08,0.06,449,717,9,151.67,1365.03,,,
2011-10,55.5635,55.5635,2.29,10.67,15.24,4.57,0.03,0.08,0.06,449,717,9,151.67,1365.03,,,
2011-11,55.5635,55.5635,2.29,10.67,15.24,4.57,0.03,0.08,0.06,449,717,9,151.67,1365.03,,,
2011-12,55.5635,55.5635,2.29,10.67,15.24,4.57,0.03,0.08,0.06,449,717,9.19,151.67,1393.8473,,,
2012-01,55.5635,55.5635,2.29,10.67,15.24,4.57,0.03,0.08,0.06,449,717,9.22,151.67,1398.37,,,
2012-02,55.5635,55.5635,2.29,10.67,15.24,4.57,0.03,0.08,0.06,449,717,9.22,151.67,1398.37,,,
2012-03,55.5635,55.5635,2.29,10.67,15.24,4.57,0.03,0.08,0.06,449,717,9.22,151.67,1398.37,,,
2012-04,55.5635,55.5635,2.29,10.67,15.24,4.57,0.03,0.08,0.06,449,717,9.22,151.67,1398.37,,,
2012-05,55.5635,55.5635,2.29,10.67,15.24,4.57,0.03,0.08,0.06,449,717,9.22,151.67,1398.37,,,
2012-06,55.5635,55.5635,2.29,10.67,15.24,4.57,0.03,0.08,0.06,449,717,9.22,151.67,1398.37,,,
2012-07,55.5635,55.5635,2.29,10.67,15.24,4.57,0.03,0.08,0.06,449,717,9.4,151.67,1425.67,,,
2012-08,55.5635,55.5635,2.29,10.67,15.24,4.57,0.03,0.08,0.06,449,717,9.4,151.67,1425.67,,,
2012-09,55.5635,55.5635,2.29,10.67,15.24,4.57,0.03,0.08,0.06,449,717,9.4,151.67,1425.67,,,
2012-10,55.5635,55.5635,2.29,10.67,15.24,4.57,0.03,0.08,0.06,449,717,9.4,151.67,1425.67,,,
2012-11,55.5635,55.5635,2.29,10.67,15.24,4.57,0.03,0.08,0.06,449,717,9.4,151.67,1425.67,,,
2012-12,55.5635,55.5635,2.29,10.67,15.24,4.57,0.03,0.08,0.06,449,717,9.4,151.67,1425.67,,,
2013-01,55.5635,55.5635,2.29,10.67,15.24,4.57,0.03,0.08,0.06,449,717,9.43,151.67,1430.22,,,
2013-02,55.5635,55.5635,2.29,10.67,15.24,4.57,0.03,0.08,0.06,449,717,9.43,151.67,1430.22,,,
2013-03,55.5635,55.5635,2.29,10.67,15.24,4.57,0.03,0.08,0.06,449,717,9.43,151.67,1430.22,,,
2013-04,55.5635,55.5635,2.29,10.67,15.24,4.57,0.03,0.08,0.06,449,717,9.43,151.67,1430.22,,,
2013-05,55.5635,55.5635,2.29,10.67,15.24,4.57,0.03,0.08,0.06,449,717,9.43,151.67,1430.22,,,
2013-06,55.5635,55.5635,2.29,10.67,15.24,4.57,0.03,0.08,0.06,449,717,9.43,151.67,1430.22,,,
2013-07,55.5635,55.5635,2.29,10.67,15.24,4.57,0.03,0.08,0.06,449,717,9.43,151.67,1430.22,,,
2013-08,55.5635,55.5635,2.29,10.67,15.24,4.57,0.03,0.08,0.06,449,717,9.43,151.67,1430.22,,,
2013-09,55.5635,55.5635,2.29,10.67,15.24,4.57,0.03,0.08,0.06,449,717,9.43,151.67,1430.22,,,
2013-10,55.5635,55.5635,2.29,10.67,15.24,4.57,0.03,0.08,0.06,449,717,9.43,151.67,1430.22,,,
2013-11,55.5635,55.5635,2.29,10.67,15.24,4.57,0.03,0.08,0.06,449,717,9.43,151.67,1430.22,,,
2013-12,55.5635,55.5635,2.29,10.67,15.24,4.57,0.03,0.08,0.06,449,717,9.43,151.67,1430.22,,,
2014-01,55.5635,55.5635,2.29,10.67,15.24,4.57,0.03,0.08,0.06,449,717,9.53,151.67,1445.38,,,
2014-02,55.5635,55.5635,2.29,10.67,15.24,4.57,0.03,0.08,0.06,449,717,9.53,151.67,1445.38,,,
2014-03,55.5635,55.5635,2.29,10.67,15.24,4.57,0.03,0.08,0.06,449,717,9.53,151.67,1445.38,,,
2014-04,55.5635,55.5635,2.29,10.67,15.24,4.57,0.03,0.08,0.06,449,717,9.53,151.67,1445.38,,,
2014-05,55.5635,55.5635,2.29,10.67,15.24,4.57,0.03,0.08,0.06,449,717,9.53,151.67,1445.38,,,
2014-06,55.5635,55.5635,2.29,10.67,15.24,4.57,0.03,0.08,0.06,449,717,9.53,151.67,1445.38,,,
2014-07,55.5635,55.5635,2.29,10.67,15.24,4.57,0.03,0.08,0.06,449,717,9.53,151.67,1445.38,,,
2014-08,55.5635,55.5635,2.29,10.67,15.24,4.57,0.03,0.08,0.06,449,717,9.53,151.67,1445.38,,,
2014-09,55.5635,55.5635,2.29,10.67,15.24,4.57,0.03,0.08,0.06,449,717,9.53,151.67,1445.38,,,
2014-10,55.5635,55.5635,2.29,10.67,15.24,4.57,0.03,0.08,0.06,449,717,9.53,151.67,1445.38,,,
2014-11,55.5635,55.5635,2.29,10.67,15.24,4.57,0.03,0.08,0.06,449,717,9.53,151.67,1445.38,,,
2014-12,55.5635,55.5635,2.29,10.67,15.24,4.57,0.03,0.08,0.06,449,717,9.53,151.67,1445.38,,,
2015-01,55.5635,55.5635,2.29,10.67,15.24,4.57,0.03,0.08,0.06,449,717,9.61,151.67,1457.52,,,
2015-02,55.5635,55.5635,2.29,10.67,15.24,4.57,0.03,0.08,0.06,449,717,9.61,151.67,1457.52,,,
2015-03,55.5635,55.5635,2.29,10.67,15.24,4.57,0.03,0.08,0.06,449,717,9.61,151.67,1457.52,,,
2015-04,55.5635,55.5635,2.29,10.67,15.24,4.57,0.03,0.08,0.06,449,717,9.61,151.67,1457.52,,,
2015-05,55.5635,55.5635,2.29,10.67,15.24,4.57,0.03,0.08,0.06,449,717,9.61,151.67,1457.52,,,
2015-06,55.5635,55.5635,2.29,10.67,15.24,4.57,0.03,0.08,0.06,449,717,9.61,151.67,1457.52,,,
2015-07,55.5635,55.5635,2.29,10.67,15.24,4.57,0.03,0.08,0.06,449,717,9.61,151.67,1457.52,,,
2015-08,55.5635,55.5635,2.29,10.67,15.24,4.57,0.03,0.08,0.06,449,717,9.61,151.67,1457.52,,,
2015-09,55.5635,55.5635,2.29,10.67,15.24,4.57,0.03,0.08,0.06,449,717,9.61,151.67,1457.52,,,
2015-10,55.5635,55.5635,2.29,10.67,15.24,4.57,0.03,0.08,0.06,449,717,9.61,151.67,1457.52,,,
2015-11,55.5635,55.5635,2.29,10.67,15.24,4.57,0.03,0.08,0.06,449,717,9.61,151.67,1457.52,,,
2015-12,55.5635,55.5635,2.29,10.67,15.24,4.57,0.03,0.08,0.06,449,717,9.61,151.67,1457.52,,,
2016-01,55.5635,55.5635,2.29,10.67,15.24,4.57,0.03,0.08,0.06,449,717,9.67,151.67,1466.62,,,
2016-02,55.5635,55.5635,2.29,10.67,15.24,4.57,0.03,0.08,0.06,449,717,9.67,151.67,1466.62,,,
2016-03,55.5635,55.5635,2.29,10.67,15.24,4.57,0.03,0.08,0.06,449,717,9.67,151.67,1466.62,,,
2016-04,55.5635,55.5635,2.29,10.67,15.24,4.57,0.03,0.08,0.06,449,717,9.67,151.67,1466.62,,,
2016-05,55.5635,55.5635,2.29,10.67,15.24,4.57,0.03,0.08,0.06,449,717,9.67,151.67,1466.62,,,
2016-06,55.5635,55.5635,2.29,10.67,15.24,4.57,0.03,0.08,0.06,449,717,9.67,151.67,1466.62,,,
2016-07,55.8969,55.8969,2.29,10.67,15.24,4.57,0.03,0.08,0.06,449,717,9.67,151.67,1466.62,,,
2016-08,55.8969,55.8969,2.29,10.67,15.24,4.57,0.03,0.08,0.06,449,717,9.67,151.67,1466.62,,,
2016-09,55.8969,55.8969,2.29,10.67,15.24,4.57,0.03,0.08,0.06,449,717,9.67,151.67,1466.62,,,
2016-10,55.8969,55.8969,2.29,10.67,15.24,4.57,0.03,0.08,0.06,449,717,9.67,151.67,1466.62,,,
2016-11,55.8969,55.8969,2.29,10.67,15.24,4.57,0.03,0.08,0.06,449,717,9.67,151.67,1466.62,,,
2016-12,55.8969,55.8969,2.29,10.67,15.24,4.57,0.03,0.08,0.06,449,717,9.67,151.67,1466.62,,,
2017-01,55.8969,55.8969,2.29,10.67,15.24,4.57,0.03,0.08,0.06,449,717,9.76,151.67,1480.27,,,
2017-02,56.2323,56.2323,2.29,10.67,15.24,4.57,0.03,0.08,0.06,449,717,9.76,151.67,1480.27,,,
2017-03,56.2323,56.2323,2.29,10.67,15.24,4.57,0.03,0.08,0.06,449,717,9.76,151.67,1480.27,,,
2017-04,56.2323,56.2323,2.29,10.67,15.24,4.57,0.03,0.08,0.06,449,717,9.76,151.67,1480.27,,,
2017-05,56.2323,56.2323,2.29,10.67,15.24,4.57,0.03,0.08,0.06,449,717,9.76,151.67,1480.27,,,
2017-06,56.2323,56.2323,2.29,10.67,15.24,4.57,0.03,0.08,0.06,449,717,9.76,151.67,1480.27,,,
2017-07,56.2323,56.2323,2.29,10.67,15.24,4.57,0.03,0.08,0.06,449,717,9.76,151.67,1480.27,,,
2017-08,56.2323,56.2323,2.29,10.67,15.24,4.57,0.03,0.08,0.06,449,717,9.76,151.67,1480.27,,,
2017-09,56.2323,56.2323,2.29,10.67,15.24,4.57,0.03,0.08,0.06,449,717,9.76,151.67,1480.27,,,
2017-10,56.2323,56.2323,2.29,10.67,15.24,4.57,0.03,0.08,0.06,449,717,9.76,151.67,1480.27,,,
2017-11,56.2323,56.2323,2.29,10.67,15.24,4.57,0.03,0.08,0.06,449,717,9.76,151.67,1480.27,,,
2017-12,56.2323,56.2323,2.29,10.67,15.24,4.57,0.03,0.08,0.06,449,717,9.76,151.67,1480.27,,,
2018-01,56.2323,56.2323,2.29,10.67,15.24,4.57,0.03,0.08,0.06,449,717,9.88,151.67,1498.47,,,
2018-02,56.2323,56.2323,2.29,10.67,15.24,4.57,0.03,0.08,0.06,449,717,9.88,151.67,1498.47,,,
2018-03,56.2323,56.2323,2.29,10.67,15.24,4.57,0.03,0.08,0.06,449,717,9.88,151.67,1498.47,,,
2018-04,56.2323,56.2323,2.29,10.67,15.24,4.57,0.03,0.08,0.06,449,717,9.88,151.67,1498.47,,,
2018-05,56.2323,56.2323,2.29,10.67,15.24,4.57,0.03,0.08,0.06,449,717,9.88,151.67,1498.47,,,
2018-06,56.2323,56.2323,2.29,10.67,15.24,4.57,0.03,0.08,0.06,449,717,9.88,151.67,1498.47,,,
2018-07,56.2323,56.2323,2.29,10.67,15.24,4.57,0.03,0.08,0.06,449,717,9.88,151.67,1498.47,,,
2018-08,56.2323,56.2323,2.29,10.67,15.24,4.57,0.03,0.08,0.06,449,717,9.88,151.67,1498.47,,,
2018-09,56.2323,56.2323,2.29,10.67,15.24,4.57,0.03,0.08,0.06,449,717,9.88,151.67,1498.47,,,
2018-10,56.2323,56.2323,2.29,10.67,15.24,4.57,0.03,0.08,0.06,449,717,9.88,151.67,1498.47,,,
2018-11,56.2323,56.2323,2.29,10.67,15.24,4.57,0.03,0.08,0.06,449,717,9.88,151.67,1498.47,,,
2018-12,56.2323,56.2323,2.29,10.67,15.24,4.57,0.03,0.08,0.06,449,717,9.88,151.67,1498.47,,,
